<svg xmlns="http://www.w3.org/2000/svg" width="148.9" height="146.3" viewBox="0 0 148.9 146.3">
  <path d="M140.12,57.44c-2.25-1.28-3.7-2.53-4-5.09-3.53-28.6-26.37-50.76-61.65-50.76-35,0-58.1,22.15-61.64,50.75-.32,2.57-2.12,3.83-4.37,5.11C4.19,59.85,1.82,65.6,2.46,71,3.23,77.48,9.3,82.1,15.86,82.1H133.05c6.56,0,12.62-4.61,13.4-11.12C147.09,65.61,144.37,59.85,140.12,57.44Zm-27.48,87.28H36.27a9.51,9.51,0,0,1-9.41-8.14L21.5,99.79a7.13,7.13,0,0,1,7.05-8.16h91.8a7.13,7.13,0,0,1,7.05,8.16l-5.36,36.79A9.51,9.51,0,0,1,112.64,144.71Z" style="fill: #37a6b1;"/>
</svg>
